"Fe" "Es" "SA" "porc" "porcen" "loc" "parc" "anyo" "dias" "Tempmedia" "HRmedia" "Prec.mm."
"1" 2010-03-11 0 0 0 0 "alcudia" 1 2010 70 5.95 70.9 0
"2" 2010-03-18 0 0 0 0 "alcudia" 1 2010 77 10.6 84.2 0
"3" 2010-03-25 14 14 0.983836964160225 0.983836964160225 "alcudia" 1 2010 84 14.53 82.3 0
"4" 2010-03-31 28 42 1.96767392832045 2.95151089248067 "alcudia" 1 2010 90 14.81 49.18 0
"5" 2010-04-08 56 98 3.9353478566409 6.88685874912157 "alcudia" 1 2010 98 12.04 71.4 0
"6" 2010-04-15 43 141 3.02178496134926 9.90864371047084 "alcudia" 1 2010 105 12.21 83.5 0
"7" 2010-04-22 85 226 5.97329585382994 15.8819395643008 "alcudia" 1 2010 112 15 86.2 3.2
"8" 2010-04-29 310 536 21.7849613492621 37.6669009135629 "alcudia" 1 2010 119 18.83 73.4 0
"9" 2010-05-07 268 804 18.8334504567814 56.5003513703443 "alcudia" 1 2010 127 14.62 80 10.2
"10" 2010-05-13 58 862 4.07589599437807 60.5762473647224 "alcudia" 1 2010 133 16.8 48.85 0
"11" 2010-05-20 56 918 3.9353478566409 64.5115952213633 "alcudia" 1 2010 140 19.03 63.5 0
"12" 2010-05-27 183 1101 12.8601546029515 77.3717498243148 "alcudia" 1 2010 147 18.75 81.5 5.4
"13" 2010-06-03 128 1229 8.9950808151792 86.366830639494 "alcudia" 1 2010 154 21.85 78.3 0
"14" 2010-06-10 26 1255 1.82712579058327 88.1939564300773 "alcudia" 1 2010 161 22.26 56.15 0.4
"15" 2010-06-17 25 1280 1.75685172171469 89.950808151792 "alcudia" 1 2010 168 18.93 66.26 0
"16" 2010-06-24 31 1311 2.17849613492621 92.1293042867182 "alcudia" 1 2010 175 22.15 76.3 0
"17" 2010-07-01 12 1323 0.84328882642305 92.9725931131413 "alcudia" 1 2010 182 26.17 60.41 0
"18" 2010-07-08 4 1327 0.28109627547435 93.2536893886156 "alcudia" 1 2010 189 25.69 70.6 0
"19" 2010-07-15 5 1332 0.351370344342937 93.6050597329585 "alcudia" 1 2010 196 25.85 80.5 0
"20" 2010-07-22 25 1357 1.75685172171469 95.3619114546732 "alcudia" 1 2010 203 26.58 77 0
"21" 2010-07-29 28 1385 1.96767392832045 97.3295853829937 "alcudia" 1 2010 210 25.84 69.82 0
"22" 2010-08-05 38 1423 2.67041461700632 100 "alcudia" 1 2010 217 26.03 67.65 0
"23" 2010-08-12 0 1423 0 100 "alcudia" 1 2010 224 25.49 76.3 0
"24" 2010-08-19 0 1423 0 100 "alcudia" 1 2010 231 22.99 86.8 5.4
"25" 2010-08-26 0 1423 0 100 "alcudia" 1 2010 238 28.71 65.12 0
"26" 2010-09-02 0 1423 0 100 "alcudia" 1 2010 245 21.06 83.6 16.8
"27" 2010-09-09 0 1423 0 100 "alcudia" 1 2010 252 22.02 53.84 0
"28" 2010-09-16 0 1423 0 100 "alcudia" 1 2010 259 21.88 84.6 0.2
"29" 2010-09-23 0 1423 0 100 "alcudia" 1 2010 266 21.54 84.5 3.4
"30" 2010-09-30 0 1423 0 100 "alcudia" 1 2010 273 20.01 84.1 0.2
"31" 2011-03-29 122 122 3.68468740561764 3.68468740561764 "alcudia" 1 2011 88 16.61 59.19 0
"32" 2011-04-05 146 268 4.40954394442767 8.0942313500453 "alcudia" 1 2011 95 15.65 70.3 0
"33" 2011-04-12 71 339 2.14436726064633 10.2385986106916 "alcudia" 1 2011 102 18.15 60.57 0
"34" 2011-04-19 110 449 3.32225913621263 13.5608577469043 "alcudia" 1 2011 109 15.49 71.7 0
"35" 2011-04-26 227 676 6.85593476291151 20.4167925098158 "alcudia" 1 2011 116 17.76 66.36 0
"36" 2011-05-03 45 721 1.3591060102688 21.7758985200846 "alcudia" 1 2011 123 17.85 77.9 4.2
"37" 2011-05-10 375 1096 11.3258834189067 33.1017819389912 "alcudia" 1 2011 130 18.33 78 0
"38" 2011-05-17 376 1472 11.3560857746904 44.4578677136817 "alcudia" 1 2011 137 18.6 72.9 0
"39" 2011-05-24 98 1570 2.95983086680761 47.4176985804893 "alcudia" 1 2011 144 22.16 55.59 0
"40" 2011-05-31 95 1665 2.86922379945636 50.2869223799456 "alcudia" 1 2011 151 21.74 69.07 0
"41" 2011-06-07 527 2192 15.9166414980368 66.2035638779825 "alcudia" 1 2011 158 19.78 68.78 0.6
"42" 2011-06-14 312 2504 9.42313500453035 75.6266988825128 "alcudia" 1 2011 165 22.85 74.9 0
"43" 2011-06-21 160 2664 4.83237692540018 80.459075807913 "alcudia" 1 2011 172 24 71.5 0
"44" 2011-06-28 57 2721 1.72153427967381 82.1806100875868 "alcudia" 1 2011 179 24.82 72 0.2
"45" 2011-07-05 407 3128 12.2923588039867 94.4729688915735 "alcudia" 1 2011 186 26.47 64.97 0
"46" 2011-07-12 22 3150 0.664451827242525 95.1374207188161 "alcudia" 1 2011 193 25.04 80.5 3.2
"47" 2011-07-19 75 3225 2.26517668378133 97.4025974025974 "alcudia" 1 2011 200 24.94 52.8 0
"48" 2011-07-26 7 3232 0.211416490486258 97.6140138930837 "alcudia" 1 2011 207 25.74 61.14 0
"49" 2011-08-02 68 3300 2.05376019329508 99.6677740863787 "alcudia" 1 2011 214 25.2 71 0
"50" 2011-08-09 1 3301 0.0302023557837511 99.6979764421625 "alcudia" 1 2011 221 24.42 71.2 0
"51" 2011-08-16 6 3307 0.181214134702507 99.879190576865 "alcudia" 1 2011 228 26.09 73.3 0
"52" 2011-08-23 4 3311 0.120809423135005 100 "alcudia" 1 2011 235 26.32 67.83 0
"53" 2011-08-28 0 3311 0 100 "alcudia" 1 2011 240 24.86 65.93 0
"54" 2011-09-04 0 3311 0 100 "alcudia" 1 2011 247 25.6 48.77 0
"55" 2011-09-13 0 3311 0 100 "alcudia" 1 2011 256 24.34 73.2 0
"56" 2012-03-20 5 5 0.331345261762757 0.331345261762757 "alcudia" 1 2012 80 7.96 93.4 73.2
"57" 2012-03-27 7 12 0.46388336646786 0.795228628230616 "alcudia" 1 2012 87 11.99 78.8 0.2
"58" 2012-04-03 20 32 1.32538104705103 2.12060967528164 "alcudia" 1 2012 94 15.3 80.8 0
"59" 2012-04-10 44 76 2.91583830351226 5.0364479787939 "alcudia" 1 2012 101 18.34 56.6 0
"60" 2012-04-17 52 128 3.44599072233267 8.48243870112657 "alcudia" 1 2012 108 13.41 44.08 0
"61" 2012-04-24 133 261 8.81378396288933 17.2962226640159 "alcudia" 1 2012 115 18 43.85 0
"62" 2012-05-01 229 490 15.1756129887343 32.4718356527502 "alcudia" 1 2012 122 14.92 66.18 0
"63" 2012-05-08 120 610 7.95228628230616 40.4241219350563 "alcudia" 1 2012 129 23.22 46.48 0
"64" 2012-05-15 50 660 3.31345261762757 43.7375745526839 "alcudia" 1 2012 136 19.55 71.4 0
"65" 2012-05-22 17 677 1.12657388999337 44.8641484426773 "alcudia" 1 2012 143 21.21 44.38 0
"66" 2012-05-29 252 929 16.6998011928429 61.5639496355202 "alcudia" 1 2012 150 20.84 70.1 0
"67" 2012-06-05 160 1089 10.6030483764082 72.1669980119284 "alcudia" 1 2012 157 22.74 77.8 0
"68" 2012-06-12 156 1245 10.337972166998 82.5049701789264 "alcudia" 1 2012 164 22.59 57.5 0
"69" 2012-06-19 89 1334 5.89794565937707 88.4029158383035 "alcudia" 1 2012 171 22.13 86.5 1.62
"70" 2012-06-26 30 1364 1.98807157057654 90.3909874088801 "alcudia" 1 2012 178 25.09 68.38 0
"71" 2012-07-03 29 1393 1.92180251822399 92.312789927104 "alcudia" 1 2012 185 24 75.1 0
"72" 2012-07-10 19 1412 1.25911199469848 93.5719019218025 "alcudia" 1 2012 192 25.93 76.9 0
"73" 2012-07-17 26 1438 1.72299536116634 95.2948972829688 "alcudia" 1 2012 199 25.2 67.26 0
"74" 2012-07-24 67 1505 4.44002650762094 99.7349237905898 "alcudia" 1 2012 206 24.53 61.33 0
"75" 2012-07-31 2 1507 0.132538104705103 99.8674618952949 "alcudia" 1 2012 213 25.98 79.7 0
"76" 2012-08-07 0 1507 0 99.8674618952949 "alcudia" 1 2012 220 24.83 74.2 0
"77" 2012-08-14 0 1507 0 99.8674618952949 "alcudia" 1 2012 227 26.94 75.2 0
"78" 2012-08-21 0 1507 0 99.8674618952949 "alcudia" 1 2012 234 27.78 69.16 0
"79" 2012-08-27 2 1509 0.132538104705103 100 "alcudia" 1 2012 240 27.11 75.9 0
"80" 2012-09-04 0 1509 0 100 "alcudia" 1 2012 248 21.87 66.94 0
"81" 2012-09-11 0 1509 0 100 "alcudia" 1 2012 255 23.81 78.3 0
"82" 2012-09-18 0 1509 0 100 "alcudia" 1 2012 262 23 85.2 0.2
"83" 2012-09-29 0 1509 0 100 "alcudia" 1 2012 273 19.19 77.5 6.9
"84" 2013-03-07 0 0 0 0 "alcudia" 1 2013 66 16.09 73.7 1.78
"85" 2013-03-14 0 0 0 0 "alcudia" 1 2013 73 10.8 33.61 0
"86" 2013-03-21 4 4 0.307219662058372 0.307219662058372 "alcudia" 1 2013 80 13.97 60.54 0
"87" 2013-03-28 1 5 0.0768049155145929 0.384024577572965 "alcudia" 1 2013 87 18.44 51.76 0
"88" 2013-04-04 17 22 1.30568356374808 1.68970814132104 "alcudia" 1 2013 94 15.01 63.81 0
"89" 2013-04-12 12 34 0.921658986175115 2.61136712749616 "alcudia" 1 2013 102 19.27 44.6 0
"90" 2013-04-18 8 42 0.614439324116744 3.2258064516129 "alcudia" 1 2013 108 16.29 78.6 0
"91" 2013-04-23 123 165 9.44700460829493 12.6728110599078 "alcudia" 1 2013 113 14.22 73.2 0
"92" 2013-05-02 2 167 0.153609831029186 12.826420890937 "alcudia" 1 2013 122 14.58 73.9 0.2
"93" 2013-05-09 168 335 12.9032258064516 25.7296466973886 "alcudia" 1 2013 129 20.19 71.1 0
"94" 2013-05-16 14 349 1.0752688172043 26.8049155145929 "alcudia" 1 2013 136 15.64 63.46 0
"95" 2013-05-23 34 383 2.61136712749616 29.4162826420891 "alcudia" 1 2013 143 18.99 53.8 0
"96" 2013-05-30 300 683 23.0414746543779 52.457757296467 "alcudia" 1 2013 150 18.29 51.55 0
"97" 2013-06-06 112 795 8.60215053763441 61.0599078341014 "alcudia" 1 2013 157 20.63 68.06 0
"98" 2013-06-13 96 891 7.37327188940092 68.4331797235023 "alcudia" 1 2013 164 23.09 69.63 0
"99" 2013-06-20 107 998 8.21812596006144 76.6513056835637 "alcudia" 1 2013 171 21.26 71.4 0
"100" 2013-06-27 123 1121 9.44700460829493 86.0983102918587 "alcudia" 1 2013 178 21.15 71.4 0
"101" 2013-07-04 97 1218 7.45007680491551 93.5483870967742 "alcudia" 1 2013 185 23.92 73.9 0
"102" 2013-07-11 36 1254 2.76497695852535 96.3133640552995 "alcudia" 1 2013 192 25.19 76.2 0
"103" 2013-07-18 42 1296 3.2258064516129 99.5391705069124 "alcudia" 1 2013 199 25.75 71.1 0
"104" 2013-07-25 6 1302 0.460829493087558 100 "alcudia" 1 2013 206 26.45 78.3 0
"105" 2013-03-07 1 1 0.0685871056241426 0.0685871056241426 "alcudia" 2 2013 66 16.09 73.7 1.78
"106" 2013-03-14 1 2 0.0685871056241426 0.137174211248285 "alcudia" 2 2013 73 10.8 33.61 0
"107" 2013-03-21 4 6 0.274348422496571 0.411522633744856 "alcudia" 2 2013 80 13.97 60.54 0
"108" 2013-03-28 2 8 0.137174211248285 0.548696844993141 "alcudia" 2 2013 87 18.44 51.76 0
"109" 2013-04-04 6 14 0.411522633744856 0.960219478737997 "alcudia" 2 2013 94 15.01 63.81 0
"110" 2013-04-12 19 33 1.30315500685871 2.26337448559671 "alcudia" 2 2013 102 19.27 44.6 0
"111" 2013-04-18 15 48 1.02880658436214 3.29218106995885 "alcudia" 2 2013 108 16.29 78.6 0
"112" 2013-04-23 26 74 1.78326474622771 5.07544581618656 "alcudia" 2 2013 113 14.22 73.2 0
"113" 2013-05-02 26 100 1.78326474622771 6.85871056241427 "alcudia" 2 2013 122 14.58 73.9 0.2
"114" 2013-05-09 164 264 11.2482853223594 18.1069958847737 "alcudia" 2 2013 129 20.19 71.1 0
"115" 2013-05-16 57 321 3.90946502057613 22.0164609053498 "alcudia" 2 2013 136 15.64 63.46 0
"116" 2013-05-23 33 354 2.26337448559671 24.2798353909465 "alcudia" 2 2013 143 18.99 53.8 0
"117" 2013-05-30 130 484 8.91632373113855 33.196159122085 "alcudia" 2 2013 150 18.29 51.55 0
"118" 2013-06-06 288 772 19.7530864197531 52.9492455418381 "alcudia" 2 2013 157 20.63 68.06 0
"119" 2013-06-13 27 799 1.85185185185185 54.80109739369 "alcudia" 2 2013 164 23.09 69.63 0
"120" 2013-06-20 210 1009 14.40329218107 69.2043895747599 "alcudia" 2 2013 171 21.26 71.4 0
"121" 2013-06-27 73 1082 5.00685871056241 74.2112482853224 "alcudia" 2 2013 178 21.15 71.4 0
"122" 2013-07-04 218 1300 14.9519890260631 89.1632373113855 "alcudia" 2 2013 185 23.92 73.9 0
"123" 2013-07-11 46 1346 3.15500685871056 92.318244170096 "alcudia" 2 2013 192 25.19 76.2 0
"124" 2013-07-18 14 1360 0.960219478737997 93.278463648834 "alcudia" 2 2013 199 25.75 71.1 0
"125" 2013-07-25 98 1458 6.72153635116598 100 "alcudia" 2 2013 206 26.45 78.3 0
"126" 2013-03-07 2 2 0.0948316737790422 0.0948316737790422 "alcudia" 3 2013 66 16.09 73.7 1.78
"127" 2013-03-14 1 3 0.0474158368895211 0.142247510668563 "alcudia" 3 2013 73 10.8 33.61 0
"128" 2013-03-21 4 7 0.189663347558084 0.331910858226648 "alcudia" 3 2013 80 13.97 60.54 0
"129" 2013-03-28 15 22 0.711237553342816 1.04314841156946 "alcudia" 3 2013 87 18.44 51.76 0
"130" 2013-04-04 47 69 2.22854433380749 3.27169274537696 "alcudia" 3 2013 94 15.01 63.81 0
"131" 2013-04-12 4 73 0.189663347558084 3.46135609293504 "alcudia" 3 2013 102 19.27 44.6 0
"132" 2013-04-18 7 80 0.331910858226648 3.79326695116169 "alcudia" 3 2013 108 16.29 78.6 0
"133" 2013-04-23 39 119 1.84921763869132 5.64248458985301 "alcudia" 3 2013 113 14.22 73.2 0
"134" 2013-05-02 49 168 2.32337600758653 7.96586059743954 "alcudia" 3 2013 122 14.58 73.9 0.2
"135" 2013-05-09 261 429 12.375533428165 20.3413940256046 "alcudia" 3 2013 129 20.19 71.1 0
"136" 2013-05-16 69 498 3.27169274537696 23.6130867709815 "alcudia" 3 2013 136 15.64 63.46 0
"137" 2013-05-23 58 556 2.75011853959222 26.3632053105737 "alcudia" 3 2013 143 18.99 53.8 0
"138" 2013-05-30 135 691 6.40113798008535 32.7643432906591 "alcudia" 3 2013 150 18.29 51.55 0
"139" 2013-06-06 145 836 6.87529634898056 39.6396396396396 "alcudia" 3 2013 157 20.63 68.06 0
"140" 2013-06-13 303 1139 14.3669985775249 54.0066382171645 "alcudia" 3 2013 164 23.09 69.63 0
"141" 2013-06-20 10 1149 0.474158368895211 54.4807965860597 "alcudia" 3 2013 171 21.26 71.4 0
"142" 2013-06-27 738 1887 34.9928876244666 89.4736842105263 "alcudia" 3 2013 178 21.15 71.4 0
"143" 2013-07-04 177 2064 8.39260312944523 97.8662873399715 "alcudia" 3 2013 185 23.92 73.9 0
"144" 2013-07-11 36 2100 1.70697012802276 99.5732574679943 "alcudia" 3 2013 192 25.19 76.2 0
"145" 2013-07-18 3 2103 0.142247510668563 99.7155049786629 "alcudia" 3 2013 199 25.75 71.1 0
"146" 2013-07-25 6 2109 0.284495021337127 100 "alcudia" 3 2013 206 26.45 78.3 0
"147" 2013-03-07 1 1 0.0521648408972353 0.0521648408972353 "alcudia" 4 2013 66 16.09 73.7 1.78
"148" 2013-03-14 3 4 0.156494522691706 0.208659363588941 "alcudia" 4 2013 73 10.8 33.61 0
"149" 2013-03-21 0 4 0 0.208659363588941 "alcudia" 4 2013 80 13.97 60.54 0
"150" 2013-03-28 0 4 0 0.208659363588941 "alcudia" 4 2013 87 18.44 51.76 0
"151" 2013-04-04 6 10 0.312989045383412 0.521648408972353 "alcudia" 4 2013 94 15.01 63.81 0
"152" 2013-04-12 17 27 0.886802295253 1.40845070422535 "alcudia" 4 2013 102 19.27 44.6 0
"153" 2013-04-18 34 61 1.773604590506 3.18205529473135 "alcudia" 4 2013 108 16.29 78.6 0
"154" 2013-04-23 90 151 4.69483568075117 7.87689097548252 "alcudia" 4 2013 113 14.22 73.2 0
"155" 2013-05-02 40 191 2.08659363588941 9.96348461137194 "alcudia" 4 2013 122 14.58 73.9 0.2
"156" 2013-05-09 260 451 13.5628586332812 23.5263432446531 "alcudia" 4 2013 129 20.19 71.1 0
"157" 2013-05-16 70 521 3.65153886280647 27.1778821074596 "alcudia" 4 2013 136 15.64 63.46 0
"158" 2013-05-23 69 590 3.59937402190923 30.7772561293688 "alcudia" 4 2013 143 18.99 53.8 0
"159" 2013-05-30 78 668 4.06885758998435 34.8461137193532 "alcudia" 4 2013 150 18.29 51.55 0
"160" 2013-06-06 104 772 5.42514345331247 40.2712571726656 "alcudia" 4 2013 157 20.63 68.06 0
"161" 2013-06-13 148 920 7.72039645279082 47.9916536254564 "alcudia" 4 2013 164 23.09 69.63 0
"162" 2013-06-20 359 1279 18.7271778821075 66.7188315075639 "alcudia" 4 2013 171 21.26 71.4 0
"163" 2013-06-27 127 1406 6.62493479394888 73.3437663015128 "alcudia" 4 2013 178 21.15 71.4 0
"164" 2013-07-04 206 1612 10.7459572248305 84.0897235263432 "alcudia" 4 2013 185 23.92 73.9 0
"165" 2013-07-11 7 1619 0.365153886280647 84.4548774126239 "alcudia" 4 2013 192 25.19 76.2 0
"166" 2013-07-18 172 1791 8.97235263432447 93.4272300469484 "alcudia" 4 2013 199 25.75 71.1 0
"167" 2013-07-25 126 1917 6.57276995305164 100 "alcudia" 4 2013 206 26.45 78.3 0
"168" 2014-03-18 0 0 0 0 "alcudia" 1 2014 77 14.33 71.1 0
"169" 2014-03-25 0 0 0 0 "alcudia" 1 2014 84 15.19 41.86 0.2
"170" 2014-04-02 0 0 0 0 "alcudia" 1 2014 92 14.46 83 2.57
"171" 2014-04-11 5 5 6.75675675675676 6.75675675675676 "alcudia" 1 2014 101 16.84 84.1 1.19
"172" 2014-04-16 0 5 0 6.75675675675676 "alcudia" 1 2014 106 17.65 76.7 0
"173" 2014-04-24 1 6 1.35135135135135 8.10810810810811 "alcudia" 1 2014 114 18.79 58.19 0
"174" 2014-04-30 2 8 2.7027027027027 10.8108108108108 "alcudia" 1 2014 120 18.79 61.85 0
"175" 2014-05-08 7 15 9.45945945945946 20.2702702702703 "alcudia" 1 2014 128 19.24 72.6 0
"176" 2014-05-15 0 15 0 20.2702702702703 "alcudia" 1 2014 135 17.75 70.6 0
"177" 2014-05-25 4 19 5.40540540540541 25.6756756756757 "alcudia" 1 2014 145 18.65 69.66 2.97
"178" 2014-05-29 8 27 10.8108108108108 36.4864864864865 "alcudia" 1 2014 149 19.63 63.95 0
"179" 2014-06-04 9 36 12.1621621621622 48.6486486486487 "alcudia" 1 2014 155 23.75 61.9 0
"180" 2014-06-12 23 59 31.0810810810811 79.7297297297297 "alcudia" 1 2014 163 24.86 51.19 0
"181" 2014-06-19 6 65 8.10810810810811 87.8378378378378 "alcudia" 1 2014 170 23.29 73.9 0
"182" 2014-06-26 1 66 1.35135135135135 89.1891891891892 "alcudia" 1 2014 177 23.81 64.25 0
"183" 2014-07-03 5 71 6.75675675675676 95.9459459459459 "alcudia" 1 2014 184 22.51 87.9 5.94
"184" 2014-07-10 3 74 4.05405405405405 100 "alcudia" 1 2014 191 22.56 56.31 0
"185" 2014-07-17 0 74 0 100 "alcudia" 1 2014 198 25.83 74.2 0
"186" 2014-03-18 0 0 0 0 "alcudia" 2 2014 77 14.33 71.1 0
"187" 2014-03-25 0 0 0 0 "alcudia" 2 2014 84 15.19 41.86 0.2
"188" 2014-04-02 0 0 0 0 "alcudia" 2 2014 92 14.46 83 2.57
"189" 2014-04-11 0 0 0 0 "alcudia" 2 2014 101 16.84 84.1 1.19
"190" 2014-04-16 0 0 0 0 "alcudia" 2 2014 106 17.65 76.7 0
"191" 2014-04-24 1 1 0.598802395209581 0.598802395209581 "alcudia" 2 2014 114 18.79 58.19 0
"192" 2014-04-30 0 1 0 0.598802395209581 "alcudia" 2 2014 120 18.79 61.85 0
"193" 2014-05-08 6 7 3.59281437125748 4.19161676646707 "alcudia" 2 2014 128 19.24 72.6 0
"194" 2014-05-15 9 16 5.38922155688623 9.58083832335329 "alcudia" 2 2014 135 17.75 70.6 0
"195" 2014-05-25 5 21 2.9940119760479 12.5748502994012 "alcudia" 2 2014 145 18.65 69.66 2.97
"196" 2014-05-29 5 26 2.9940119760479 15.5688622754491 "alcudia" 2 2014 149 19.63 63.95 0
"197" 2014-06-04 65 91 38.9221556886228 54.4910179640719 "alcudia" 2 2014 155 23.75 61.9 0
"198" 2014-06-12 17 108 10.1796407185629 64.6706586826347 "alcudia" 2 2014 163 24.86 51.19 0
"199" 2014-06-19 26 134 15.5688622754491 80.2395209580838 "alcudia" 2 2014 170 23.29 73.9 0
"200" 2014-06-26 5 139 2.9940119760479 83.2335329341317 "alcudia" 2 2014 177 23.81 64.25 0
"201" 2014-07-03 21 160 12.5748502994012 95.8083832335329 "alcudia" 2 2014 184 22.51 87.9 5.94
"202" 2014-07-10 0 160 0 95.8083832335329 "alcudia" 2 2014 191 22.56 56.31 0
"203" 2014-07-17 7 167 4.19161676646707 100 "alcudia" 2 2014 198 25.83 74.2 0
"204" 2014-03-18 0 0 0 0 "alcudia" 3 2014 77 14.33 71.1 0
"205" 2014-03-25 0 0 0 0 "alcudia" 3 2014 84 15.19 41.86 0.2
"206" 2014-04-02 4 4 2.87769784172662 2.87769784172662 "alcudia" 3 2014 92 14.46 83 2.57
"207" 2014-04-11 6 10 4.31654676258993 7.19424460431655 "alcudia" 3 2014 101 16.84 84.1 1.19
"208" 2014-04-16 0 10 0 7.19424460431655 "alcudia" 3 2014 106 17.65 76.7 0
"209" 2014-04-24 2 12 1.43884892086331 8.63309352517986 "alcudia" 3 2014 114 18.79 58.19 0
"210" 2014-04-30 0 12 0 8.63309352517986 "alcudia" 3 2014 120 18.79 61.85 0
"211" 2014-05-08 3 15 2.15827338129496 10.7913669064748 "alcudia" 3 2014 128 19.24 72.6 0
"212" 2014-05-15 4 19 2.87769784172662 13.6690647482014 "alcudia" 3 2014 135 17.75 70.6 0
"213" 2014-05-25 8 27 5.75539568345324 19.4244604316547 "alcudia" 3 2014 145 18.65 69.66 2.97
"214" 2014-05-29 16 43 11.5107913669065 30.9352517985612 "alcudia" 3 2014 149 19.63 63.95 0
"215" 2014-06-04 19 62 13.6690647482014 44.6043165467626 "alcudia" 3 2014 155 23.75 61.9 0
"216" 2014-06-12 66 128 47.4820143884892 92.0863309352518 "alcudia" 3 2014 163 24.86 51.19 0
"217" 2014-06-19 0 128 0 92.0863309352518 "alcudia" 3 2014 170 23.29 73.9 0
"218" 2014-06-26 0 128 0 92.0863309352518 "alcudia" 3 2014 177 23.81 64.25 0
"219" 2014-07-03 9 137 6.47482014388489 98.5611510791367 "alcudia" 3 2014 184 22.51 87.9 5.94
"220" 2014-07-10 2 139 1.43884892086331 100 "alcudia" 3 2014 191 22.56 56.31 0
"221" 2014-07-17 0 139 0 100 "alcudia" 3 2014 198 25.83 74.2 0
"222" 2014-03-18 0 0 0 0 "alcudia" 4 2014 77 14.33 71.1 0
"223" 2014-03-25 0 0 0 0 "alcudia" 4 2014 84 15.19 41.86 0.2
"224" 2014-04-02 2 2 1.94174757281553 1.94174757281553 "alcudia" 4 2014 92 14.46 83 2.57
"225" 2014-04-11 9 11 8.7378640776699 10.6796116504854 "alcudia" 4 2014 101 16.84 84.1 1.19
"226" 2014-04-16 0 11 0 10.6796116504854 "alcudia" 4 2014 106 17.65 76.7 0
"227" 2014-04-24 0 11 0 10.6796116504854 "alcudia" 4 2014 114 18.79 58.19 0
"228" 2014-04-30 4 15 3.88349514563107 14.5631067961165 "alcudia" 4 2014 120 18.79 61.85 0
"229" 2014-05-08 1 16 0.970873786407767 15.5339805825243 "alcudia" 4 2014 128 19.24 72.6 0
"230" 2014-05-15 26 42 25.2427184466019 40.7766990291262 "alcudia" 4 2014 135 17.75 70.6 0
"231" 2014-05-25 5 47 4.85436893203883 45.6310679611651 "alcudia" 4 2014 145 18.65 69.66 2.97
"232" 2014-05-29 3 50 2.9126213592233 48.5436893203884 "alcudia" 4 2014 149 19.63 63.95 0
"233" 2014-06-04 10 60 9.70873786407767 58.252427184466 "alcudia" 4 2014 155 23.75 61.9 0
"234" 2014-06-12 0 60 0 58.252427184466 "alcudia" 4 2014 163 24.86 51.19 0
"235" 2014-06-19 9 69 8.7378640776699 66.9902912621359 "alcudia" 4 2014 170 23.29 73.9 0
"236" 2014-06-26 4 73 3.88349514563107 70.873786407767 "alcudia" 4 2014 177 23.81 64.25 0
"237" 2014-07-03 29 102 28.1553398058252 99.0291262135922 "alcudia" 4 2014 184 22.51 87.9 5.94
"238" 2014-07-10 1 103 0.970873786407767 100 "alcudia" 4 2014 191 22.56 56.31 0
"239" 2014-07-17 0 103 0 100 "alcudia" 4 2014 198 25.83 74.2 0
"240" 2015-03-15 7 7 0.0279407655769768 0.0279407655769768 "alcudia" 1 2015 74 9.72 59.84 0
"241" 2015-03-26 13 20 0.0518899932143855 0.0798307587913623 "alcudia" 1 2015 85 11.09 57.38 0
"242" 2015-03-31 85 105 0.33928072486329 0.419111483654652 "alcudia" 1 2015 90 20.91 53.15 0
"243" 2015-04-09 191 296 0.76238374645751 1.18149523011216 "alcudia" 1 2015 99 12.95 70.2 0
"244" 2015-04-16 492 788 1.96383666626751 3.14533189637968 "alcudia" 1 2015 106 17.62 64.31 0
"245" 2015-04-23 1824 2612 7.28056520177224 10.4258970981519 "alcudia" 1 2015 113 17.23 73.6 0
"246" 2015-04-30 1599 4211 6.38246916536942 16.8083662635213 "alcudia" 1 2015 120 17.62 76.1 0
"247" 2015-05-06 2049 6260 8.17866123817507 24.9870275016964 "alcudia" 1 2015 126 20.59 53.7 0
"248" 2015-05-14 4260 10520 17.0039516225602 41.9909791242566 "alcudia" 1 2015 134 30.39 40.2 0
"249" 2015-05-21 2154 12674 8.59777272182972 50.5887518460863 "alcudia" 1 2015 141 16.71 61.19 0
"250" 2015-05-28 1660 14334 6.62595297968307 57.2147048257694 "alcudia" 1 2015 148 20.6 70.4 0
"251" 2015-06-04 3369 17703 13.447491318405 70.6621961441743 "alcudia" 1 2015 155 22.26 57.33 0
"252" 2015-06-11 2061 19764 8.22655969344989 78.8887558376242 "alcudia" 1 2015 162 22.55 86.5 0
"253" 2015-06-18 929 20693 3.70813874585878 82.596894583483 "alcudia" 1 2015 169 22.44 69.92 0
"254" 2015-06-25 582 21275 2.32307508082864 84.9199696643117 "alcudia" 1 2015 176 24.05 73.2 0
"255" 2015-07-02 1133 22408 4.52241248553067 89.4423821498423 "alcudia" 1 2015 183 25.82 79.1 0
"256" 2015-07-09 855 23263 3.41276493833074 92.8551470881731 "alcudia" 1 2015 190 27.06 74.5 0
"257" 2015-07-16 1542 24805 6.15495150281403 99.0100985909871 "alcudia" 1 2015 197 26.84 75.8 0
"258" 2015-07-28 248 25053 0.989901409012893 100 "alcudia" 1 2015 209 28.54 79.5 0
"259" 2015-03-15 1 1 0.00440936549230566 0.00440936549230566 "alcudia" 2 2015 74 9.72 59.84 0
"260" 2015-03-26 12 13 0.0529123859076679 0.0573217513999735 "alcudia" 2 2015 85 11.09 57.38 0
"261" 2015-03-31 139 152 0.612901803430486 0.67022355483046 "alcudia" 2 2015 90 20.91 53.15 0
"262" 2015-04-09 399 551 1.75933683142996 2.42956038626042 "alcudia" 2 2015 99 12.95 70.2 0
"263" 2015-04-16 524 1075 2.31050751796816 4.74006790422858 "alcudia" 2 2015 106 17.62 64.31 0
"264" 2015-04-23 1930 3005 8.51007540014992 13.2501433043785 "alcudia" 2 2015 113 17.23 73.6 0
"265" 2015-04-30 0 3005 0 13.2501433043785 "alcudia" 2 2015 120 17.62 76.1 0
"266" 2015-05-06 2281 5286 10.0577626879492 23.3079059923277 "alcudia" 2 2015 126 20.59 53.7 0
"267" 2015-05-14 3491 8777 15.393094933639 38.7010009259668 "alcudia" 2 2015 134 30.39 40.2 0
"268" 2015-05-21 2268 11045 10.0004409365492 48.701441862516 "alcudia" 2 2015 141 16.71 61.19 0
"269" 2015-05-28 3068 14113 13.5279333303938 62.2293751929097 "alcudia" 2 2015 148 20.6 70.4 0
"270" 2015-06-04 4164 18277 18.3605979099608 80.5899731028705 "alcudia" 2 2015 155 22.26 57.33 0
"271" 2015-06-11 1792 20069 7.90158296221174 88.4915560650822 "alcudia" 2 2015 162 22.55 86.5 0
"272" 2015-06-18 886 20955 3.90669782618281 92.398253891265 "alcudia" 2 2015 169 22.44 69.92 0
"273" 2015-06-25 292 21247 1.28753472375325 93.6857886150183 "alcudia" 2 2015 176 24.05 73.2 0
"274" 2015-07-02 659 21906 2.90577185942943 96.5915604744477 "alcudia" 2 2015 183 25.82 79.1 0
"275" 2015-07-09 415 22321 1.82988667930685 98.4214471537546 "alcudia" 2 2015 190 27.06 74.5 0
"276" 2015-07-16 182 22503 0.80250451959963 99.2239516733542 "alcudia" 2 2015 197 26.84 75.8 0
"277" 2015-07-28 176 22679 0.776048326645796 100 "alcudia" 2 2015 209 28.54 79.5 0
"278" 2015-03-15 3 3 0.017180162638873 0.017180162638873 "alcudia" 3 2015 74 9.72 59.84 0
"279" 2015-03-26 37 40 0.2118886725461 0.229068835184973 "alcudia" 3 2015 85 11.09 57.38 0
"280" 2015-03-31 181 221 1.036536479212 1.26560531439698 "alcudia" 3 2015 90 20.91 53.15 0
"281" 2015-04-09 560 781 3.20696369258962 4.4725690069866 "alcudia" 3 2015 99 12.95 70.2 0
"282" 2015-04-16 170 951 0.973542549536136 5.44611155652273 "alcudia" 3 2015 106 17.62 64.31 0
"283" 2015-04-23 1225 2176 7.0152330775398 12.4613446340625 "alcudia" 3 2015 113 17.23 73.6 0
"284" 2015-04-30 1642 3818 9.40327568434314 21.8646203184057 "alcudia" 3 2015 120 17.62 76.1 0
"285" 2015-05-06 1320 5138 7.55927156110411 29.4238918795098 "alcudia" 3 2015 126 20.59 53.7 0
"286" 2015-05-14 2219 7357 12.7075936318864 42.1314855113962 "alcudia" 3 2015 134 30.39 40.2 0
"287" 2015-05-21 1731 9088 9.91295384262971 52.0444393540259 "alcudia" 3 2015 141 16.71 61.19 0
"288" 2015-05-28 1990 11078 11.3961745504524 63.4406139044783 "alcudia" 3 2015 148 20.6 70.4 0
"289" 2015-06-04 3572 14650 20.4558469820181 83.8964608864964 "alcudia" 3 2015 155 22.26 57.33 0
"290" 2015-06-11 1196 15846 6.84915817203069 90.7456190585271 "alcudia" 3 2015 162 22.55 86.5 0
"291" 2015-06-18 311 16157 1.78101019356317 92.5266292520903 "alcudia" 3 2015 169 22.44 69.92 0
"292" 2015-06-25 474 16631 2.71446569694193 95.2410949490322 "alcudia" 3 2015 176 24.05 73.2 0
"293" 2015-07-02 388 17019 2.22196770129424 97.4630626503264 "alcudia" 3 2015 183 25.82 79.1 0
"294" 2015-07-09 251 17270 1.43740694078571 98.9004695911121 "alcudia" 3 2015 190 27.06 74.5 0
"295" 2015-07-16 182 17452 1.04226320009163 99.9427327912038 "alcudia" 3 2015 197 26.84 75.8 0
"296" 2015-07-28 10 17462 0.0572672087962433 100 "alcudia" 3 2015 209 28.54 79.5 0
"297" 2015-03-15 7 7 0.0365764447695684 0.0365764447695684 "alcudia" 4 2015 74 9.72 59.84 0
"298" 2015-03-26 24 31 0.125404953495663 0.161981398265231 "alcudia" 4 2015 85 11.09 57.38 0
"299" 2015-03-31 90 121 0.470268575608737 0.632249973873968 "alcudia" 4 2015 90 20.91 53.15 0
"300" 2015-04-09 1557 1678 8.13564635803114 8.76789633190511 "alcudia" 4 2015 99 12.95 70.2 0
"301" 2015-04-16 387 2065 2.02215487511757 10.7900512070227 "alcudia" 4 2015 106 17.62 64.31 0
"302" 2015-04-23 1579 3644 8.2506008987355 19.0406521057582 "alcudia" 4 2015 113 17.23 73.6 0
"303" 2015-04-30 1158 4802 6.05078900616574 25.0914411119239 "alcudia" 4 2015 120 17.62 76.1 0
"304" 2015-05-06 1261 6063 6.58898526491796 31.6804263768419 "alcudia" 4 2015 126 20.59 53.7 0
"305" 2015-05-14 3514 9577 18.3613752743233 50.0418016511652 "alcudia" 4 2015 134 30.39 40.2 0
"306" 2015-05-21 1154 10731 6.02988818058313 56.0716898317484 "alcudia" 4 2015 141 16.71 61.19 0
"307" 2015-05-28 1566 12297 8.18267321559202 64.2543630473404 "alcudia" 4 2015 148 20.6 70.4 0
"308" 2015-06-04 2512 14809 13.1257184658794 77.3800815132198 "alcudia" 4 2015 155 22.26 57.33 0
"309" 2015-06-11 2496 17305 13.042115163549 90.4221966767687 "alcudia" 4 2015 162 22.55 86.5 0
"310" 2015-06-18 364 17669 1.90197512801756 92.3241718047863 "alcudia" 4 2015 169 22.44 69.92 0
"311" 2015-06-25 358 18027 1.87062388964364 94.1947956944299 "alcudia" 4 2015 176 24.05 73.2 0
"312" 2015-07-02 226 18253 1.18089664541749 95.3756923398474 "alcudia" 4 2015 183 25.82 79.1 0
"313" 2015-07-09 450 18703 2.35134287804368 97.7270352178911 "alcudia" 4 2015 190 27.06 74.5 0
"314" 2015-07-16 347 19050 1.81314661929146 99.5401818371826 "alcudia" 4 2015 197 26.84 75.8 0
"315" 2015-07-28 88 19138 0.459818162817431 100 "alcudia" 4 2015 209 28.54 79.5 0
"316" 2012-03-29 227 227 28.7705956907478 28.7705956907478 "moncada" 1 2012 89 13.15 56.7 0
"317" 2012-04-03 44 271 5.5766793409379 34.3472750316857 "moncada" 1 2012 94 14.49 85.2 1.8
"318" 2012-04-10 68 339 8.61850443599493 42.9657794676806 "moncada" 1 2012 101 17.77 60.21 0
"319" 2012-04-17 1 340 0.126742712294043 43.0925221799747 "moncada" 1 2012 108 12.17 43.66 0
"320" 2012-04-24 92 432 11.660329531052 54.7528517110266 "moncada" 1 2012 115 16.69 56.23 0
"321" 2012-05-01 47 479 5.95690747782003 60.7097591888466 "moncada" 1 2012 122 14.82 63.86 0
"322" 2012-05-08 192 671 24.3346007604563 85.0443599493029 "moncada" 1 2012 129 22.03 57.01 0
"323" 2012-05-15 33 704 4.18250950570342 89.2268694550063 "moncada" 1 2012 136 19.04 65.86 0
"324" 2012-05-22 25 729 3.16856780735108 92.3954372623574 "moncada" 1 2012 143 21.74 37.55 0
"325" 2012-05-29 19 748 2.40811153358682 94.8035487959442 "moncada" 1 2012 150 21.35 61.11 0
"326" 2012-06-05 7 755 0.887198986058302 95.6907477820025 "moncada" 1 2012 157 21.77 81.1 0
"327" 2012-06-12 32 787 4.05576679340938 99.7465145754119 "moncada" 1 2012 164 22.41 55.01 0
"328" 2012-06-19 2 789 0.253485424588086 100 "moncada" 1 2012 171 22.54 81.8 3.18
"329" 2012-06-26 0 789 0 100 "moncada" 1 2012 178 26.95 54.89 0
"330" 2012-07-03 0 789 0 100 "moncada" 1 2012 185 23.3 76.88 0
"331" 2012-07-10 0 789 0 100 "moncada" 1 2012 192 25.65 77.06 0
"332" 2012-07-17 0 789 0 100 "moncada" 1 2012 199 24.46 70.03 0
"333" 2012-07-31 0 789 0 100 "moncada" 1 2012 213 26.34 77.3 0
"334" 2012-08-07 0 789 0 100 "moncada" 1 2012 220 25.54 67.26 0
"335" 2013-02-26 1 1 0.140845070422535 0.140845070422535 "moncada" 1 2013 57 6.32 57.92 0
"336" 2013-03-05 0 1 0 0.140845070422535 "moncada" 1 2013 64 13.35 90.3 18
"337" 2013-03-12 0 1 0 0.140845070422535 "moncada" 1 2013 71 13.67 46.61 0
"338" 2013-03-26 0 1 0 0.140845070422535 "moncada" 1 2013 85 18.05 55.31 0
"339" 2013-04-02 4 5 0.563380281690141 0.704225352112676 "moncada" 1 2013 92 15.06 48.06 0
"340" 2013-04-09 18 23 2.53521126760563 3.23943661971831 "moncada" 1 2013 99 15.31 54.67 0
"341" 2013-04-16 39 62 5.49295774647887 8.73239436619718 "moncada" 1 2013 106 15.26 76.89 0
"342" 2013-04-23 42 104 5.91549295774648 14.6478873239437 "moncada" 1 2013 113 13.08 75.88 0
"343" 2013-04-30 13 117 1.83098591549296 16.4788732394366 "moncada" 1 2013 120 11.55 82.6 1.2
"344" 2013-05-07 45 162 6.33802816901408 22.8169014084507 "moncada" 1 2013 127 23.5 48.91 0
"345" 2013-05-14 60 222 8.45070422535211 31.2676056338028 "moncada" 1 2013 134 17.53 82.8 4.6
"346" 2013-05-21 33 255 4.64788732394366 35.9154929577465 "moncada" 1 2013 141 14.17 68.85 0
"347" 2013-06-04 80 335 11.2676056338028 47.1830985915493 "moncada" 1 2013 155 19.17 67.88 0
"348" 2013-06-11 169 504 23.8028169014084 70.9859154929578 "moncada" 1 2013 162 24.55 46.82 0
"349" 2013-06-18 8 512 1.12676056338028 72.112676056338 "moncada" 1 2013 169 22.83 64.34 2.4
"350" 2013-06-25 64 576 9.01408450704225 81.1267605633803 "moncada" 1 2013 176 20.88 70.45 0
"351" 2013-07-02 69 645 9.71830985915493 90.8450704225352 "moncada" 1 2013 183 22.16 74.63 0
"352" 2013-07-09 54 699 7.6056338028169 98.4507042253521 "moncada" 1 2013 190 24.59 70.33 0.1
"353" 2013-07-16 11 710 1.54929577464789 100 "moncada" 1 2013 197 25 62.93 0
"354" 2013-07-23 0 710 0 100 "moncada" 1 2013 204 25.68 69.85 0
"355" 2013-02-26 0 0 0 0 "moncada" 2 2013 57 6.32 57.92 0
"356" 2013-03-05 0 0 0 0 "moncada" 2 2013 64 13.35 90.3 18
"357" 2013-03-12 0 0 0 0 "moncada" 2 2013 71 13.67 46.61 0
"358" 2013-03-26 0 0 0 0 "moncada" 2 2013 85 18.05 55.31 0
"359" 2013-04-02 5 5 0.548847420417124 0.548847420417124 "moncada" 2 2013 92 15.06 48.06 0
"360" 2013-04-09 7 12 0.768386388583974 1.3172338090011 "moncada" 2 2013 99 15.31 54.67 0
"361" 2013-04-16 15 27 1.64654226125137 2.96377607025247 "moncada" 2 2013 106 15.26 76.89 0
"362" 2013-04-23 16 43 1.7563117453348 4.72008781558727 "moncada" 2 2013 113 13.08 75.88 0
"363" 2013-04-30 2 45 0.21953896816685 4.93962678375412 "moncada" 2 2013 120 11.55 82.6 1.2
"364" 2013-05-07 45 90 4.93962678375412 9.87925356750823 "moncada" 2 2013 127 23.5 48.91 0
"365" 2013-05-14 38 128 4.17124039517014 14.0504939626784 "moncada" 2 2013 134 17.53 82.8 4.6
"366" 2013-05-21 22 150 2.41492864983535 16.4654226125137 "moncada" 2 2013 141 14.17 68.85 0
"367" 2013-06-04 211 361 23.1613611416026 39.6267837541164 "moncada" 2 2013 155 19.17 67.88 0
"368" 2013-06-11 146 507 16.02634467618 55.6531284302964 "moncada" 2 2013 162 24.55 46.82 0
"369" 2013-06-18 46 553 5.04939626783754 60.7025246981339 "moncada" 2 2013 169 22.83 64.34 2.4
"370" 2013-06-25 60 613 6.58616904500549 67.2886937431394 "moncada" 2 2013 176 20.88 70.45 0
"371" 2013-07-02 191 804 20.9659714599341 88.2546652030735 "moncada" 2 2013 183 22.16 74.63 0
"372" 2013-07-09 98 902 10.7574094401756 99.0120746432492 "moncada" 2 2013 190 24.59 70.33 0.1
"373" 2013-07-16 5 907 0.548847420417124 99.5609220636663 "moncada" 2 2013 197 25 62.93 0
"374" 2013-07-23 4 911 0.439077936333699 100 "moncada" 2 2013 204 25.68 69.85 0
"375" 2013-02-26 0 0 0 0 "moncada" 3 2013 57 6.32 57.92 0
"376" 2013-03-05 2 2 0.175131348511384 0.175131348511384 "moncada" 3 2013 64 13.35 90.3 18
"377" 2013-03-12 0 2 0 0.175131348511384 "moncada" 3 2013 71 13.67 46.61 0
"378" 2013-03-26 10 12 0.875656742556918 1.0507880910683 "moncada" 3 2013 85 18.05 55.31 0
"379" 2013-04-02 8 20 0.700525394045534 1.75131348511384 "moncada" 3 2013 92 15.06 48.06 0
"380" 2013-04-09 8 28 0.700525394045534 2.45183887915937 "moncada" 3 2013 99 15.31 54.67 0
"381" 2013-04-16 5 33 0.437828371278459 2.88966725043783 "moncada" 3 2013 106 15.26 76.89 0
"382" 2013-04-23 9 42 0.788091068301226 3.67775831873905 "moncada" 3 2013 113 13.08 75.88 0
"383" 2013-04-30 5 47 0.437828371278459 4.11558669001751 "moncada" 3 2013 120 11.55 82.6 1.2
"384" 2013-05-07 143 190 12.5218914185639 16.6374781085814 "moncada" 3 2013 127 23.5 48.91 0
"385" 2013-05-14 136 326 11.9089316987741 28.5464098073555 "moncada" 3 2013 134 17.53 82.8 4.6
"386" 2013-05-21 28 354 2.45183887915937 30.9982486865149 "moncada" 3 2013 141 14.17 68.85 0
"387" 2013-06-04 129 483 11.2959719789842 42.2942206654991 "moncada" 3 2013 155 19.17 67.88 0
"388" 2013-06-11 166 649 14.5359019264448 56.830122591944 "moncada" 3 2013 162 24.55 46.82 0
"389" 2013-06-18 306 955 26.7950963222417 83.6252189141856 "moncada" 3 2013 169 22.83 64.34 2.4
"390" 2013-06-25 21 976 1.83887915936953 85.4640980735552 "moncada" 3 2013 176 20.88 70.45 0
"391" 2013-07-02 43 1019 3.76532399299475 89.2294220665499 "moncada" 3 2013 183 22.16 74.63 0
"392" 2013-07-09 80 1099 7.00525394045534 96.2346760070052 "moncada" 3 2013 190 24.59 70.33 0.1
"393" 2013-07-16 5 1104 0.437828371278459 96.6725043782837 "moncada" 3 2013 197 25 62.93 0
"394" 2013-07-23 38 1142 3.32749562171629 100 "moncada" 3 2013 204 25.68 69.85 0
"395" 2013-02-26 3 3 0.260416666666667 0.260416666666667 "moncada" 4 2013 57 6.32 57.92 0
"396" 2013-03-05 0 3 0 0.260416666666667 "moncada" 4 2013 64 13.35 90.3 18
"397" 2013-03-12 2 5 0.173611111111111 0.434027777777778 "moncada" 4 2013 71 13.67 46.61 0
"398" 2013-03-26 5 10 0.434027777777778 0.868055555555556 "moncada" 4 2013 85 18.05 55.31 0
"399" 2013-04-02 7 17 0.607638888888889 1.47569444444444 "moncada" 4 2013 92 15.06 48.06 0
"400" 2013-04-09 15 32 1.30208333333333 2.77777777777778 "moncada" 4 2013 99 15.31 54.67 0
"401" 2013-04-16 12 44 1.04166666666667 3.81944444444444 "moncada" 4 2013 106 15.26 76.89 0
"402" 2013-04-23 28 72 2.43055555555556 6.25 "moncada" 4 2013 113 13.08 75.88 0
"403" 2013-04-30 0 72 0 6.25 "moncada" 4 2013 120 11.55 82.6 1.2
"404" 2013-05-07 51 123 4.42708333333333 10.6770833333333 "moncada" 4 2013 127 23.5 48.91 0
"405" 2013-05-14 89 212 7.72569444444444 18.4027777777778 "moncada" 4 2013 134 17.53 82.8 4.6
"406" 2013-05-21 38 250 3.29861111111111 21.7013888888889 "moncada" 4 2013 141 14.17 68.85 0
"407" 2013-06-04 226 476 19.6180555555556 41.3194444444444 "moncada" 4 2013 155 19.17 67.88 0
"408" 2013-06-11 241 717 20.9201388888889 62.2395833333333 "moncada" 4 2013 162 24.55 46.82 0
"409" 2013-06-18 135 852 11.71875 73.9583333333333 "moncada" 4 2013 169 22.83 64.34 2.4
"410" 2013-06-25 57 909 4.94791666666667 78.90625 "moncada" 4 2013 176 20.88 70.45 0
"411" 2013-07-02 211 1120 18.3159722222222 97.2222222222222 "moncada" 4 2013 183 22.16 74.63 0
"412" 2013-07-09 7 1127 0.607638888888889 97.8298611111111 "moncada" 4 2013 190 24.59 70.33 0.1
"413" 2013-07-16 7 1134 0.607638888888889 98.4375 "moncada" 4 2013 197 25 62.93 0
"414" 2013-07-23 18 1152 1.5625 100 "moncada" 4 2013 204 25.68 69.85 0
"415" 2014-04-04 5 5 1.20772946859903 1.20772946859903 "moncada" 1 2014 94 19.34 33.79 0
"416" 2014-04-11 1 6 0.241545893719807 1.44927536231884 "moncada" 1 2014 101 17.62 74.27 0
"417" 2014-04-17 3 9 0.72463768115942 2.17391304347826 "moncada" 1 2014 107 16.54 73.07 0.6
"418" 2014-04-24 8 17 1.93236714975845 4.10628019323672 "moncada" 1 2014 114 17.61 61.61 0
"419" 2014-05-06 33 50 7.97101449275362 12.0772946859903 "moncada" 1 2014 126 16.83 69.37 0
"420" 2014-05-13 62 112 14.975845410628 27.0531400966184 "moncada" 1 2014 133 18.27 70.93 1.2
"421" 2014-05-15 2 114 0.483091787439614 27.536231884058 "moncada" 1 2014 135 17.61 65.83 0
"422" 2014-05-25 25 139 6.03864734299517 33.5748792270531 "moncada" 1 2014 145 18.56 67.82 1
"423" 2014-05-29 56 195 13.5265700483092 47.1014492753623 "moncada" 1 2014 149 18.24 64.75 0
"424" 2014-06-05 54 249 13.0434782608696 60.1449275362319 "moncada" 1 2014 156 21.02 68.38 0
"425" 2014-06-12 21 270 5.07246376811594 65.2173913043478 "moncada" 1 2014 163 25.77 40.96 0
"426" 2014-06-19 10 280 2.41545893719807 67.6328502415459 "moncada" 1 2014 170 23.33 65.63 0
"427" 2014-06-26 112 392 27.0531400966184 94.6859903381642 "moncada" 1 2014 177 23.2 61.78 0
"428" 2014-07-03 7 399 1.69082125603865 96.3768115942029 "moncada" 1 2014 184 21.52 83.27 22.4
"429" 2014-07-10 8 407 1.93236714975845 98.3091787439614 "moncada" 1 2014 191 22.19 48.52 0
"430" 2014-07-17 7 414 1.69082125603865 100 "moncada" 1 2014 198 25 64.42 0
"431" 2014-04-04 0 0 0 0 "moncada" 2 2014 94 19.34 33.79 0
"432" 2014-04-11 8 8 2.38095238095238 2.38095238095238 "moncada" 2 2014 101 17.62 74.27 0
"433" 2014-04-17 3 11 0.892857142857143 3.27380952380952 "moncada" 2 2014 107 16.54 73.07 0.6
"434" 2014-04-24 13 24 3.86904761904762 7.14285714285714 "moncada" 2 2014 114 17.61 61.61 0
"435" 2014-05-06 21 45 6.25 13.3928571428571 "moncada" 2 2014 126 16.83 69.37 0
"436" 2014-05-13 65 110 19.3452380952381 32.7380952380952 "moncada" 2 2014 133 18.27 70.93 1.2
"437" 2014-05-15 21 131 6.25 38.9880952380952 "moncada" 2 2014 135 17.61 65.83 0
"438" 2014-05-25 42 173 12.5 51.4880952380952 "moncada" 2 2014 145 18.56 67.82 1
"439" 2014-05-29 34 207 10.1190476190476 61.6071428571429 "moncada" 2 2014 149 18.24 64.75 0
"440" 2014-06-05 24 231 7.14285714285714 68.75 "moncada" 2 2014 156 21.02 68.38 0
"441" 2014-06-12 16 247 4.76190476190476 73.5119047619048 "moncada" 2 2014 163 25.77 40.96 0
"442" 2014-06-19 13 260 3.86904761904762 77.3809523809524 "moncada" 2 2014 170 23.33 65.63 0
"443" 2014-06-26 35 295 10.4166666666667 87.7976190476191 "moncada" 2 2014 177 23.2 61.78 0
"444" 2014-07-03 14 309 4.16666666666667 91.9642857142857 "moncada" 2 2014 184 21.52 83.27 22.4
"445" 2014-07-10 9 318 2.67857142857143 94.6428571428571 "moncada" 2 2014 191 22.19 48.52 0
"446" 2014-07-17 18 336 5.35714285714286 100 "moncada" 2 2014 198 25 64.42 0
"447" 2014-04-04 0 0 0 0 "moncada" 3 2014 94 19.34 33.79 0
"448" 2014-04-11 4 4 1.17994100294985 1.17994100294985 "moncada" 3 2014 101 17.62 74.27 0
"449" 2014-04-17 6 10 1.76991150442478 2.94985250737463 "moncada" 3 2014 107 16.54 73.07 0.6
"450" 2014-04-24 7 17 2.06489675516224 5.01474926253687 "moncada" 3 2014 114 17.61 61.61 0
"451" 2014-05-06 18 35 5.30973451327434 10.3244837758112 "moncada" 3 2014 126 16.83 69.37 0
"452" 2014-05-13 42 77 12.3893805309735 22.7138643067847 "moncada" 3 2014 133 18.27 70.93 1.2
"453" 2014-05-15 19 96 5.6047197640118 28.3185840707965 "moncada" 3 2014 135 17.61 65.83 0
"454" 2014-05-25 6 102 1.76991150442478 30.0884955752212 "moncada" 3 2014 145 18.56 67.82 1
"455" 2014-05-29 92 194 27.1386430678466 57.2271386430678 "moncada" 3 2014 149 18.24 64.75 0
"456" 2014-06-05 31 225 9.14454277286136 66.3716814159292 "moncada" 3 2014 156 21.02 68.38 0
"457" 2014-06-12 6 231 1.76991150442478 68.141592920354 "moncada" 3 2014 163 25.77 40.96 0
"458" 2014-06-19 21 252 6.19469026548673 74.3362831858407 "moncada" 3 2014 170 23.33 65.63 0
"459" 2014-06-26 48 300 14.1592920353982 88.4955752212389 "moncada" 3 2014 177 23.2 61.78 0
"460" 2014-07-03 4 304 1.17994100294985 89.6755162241888 "moncada" 3 2014 184 21.52 83.27 22.4
"461" 2014-07-10 23 327 6.78466076696165 96.4601769911504 "moncada" 3 2014 191 22.19 48.52 0
"462" 2014-07-17 12 339 3.53982300884956 100 "moncada" 3 2014 198 25 64.42 0
"463" 2014-04-04 0 0 0 0 "moncada" 4 2014 94 19.34 33.79 0
"464" 2014-04-11 5 5 1.86567164179104 1.86567164179104 "moncada" 4 2014 101 17.62 74.27 0
"465" 2014-04-17 9 14 3.35820895522388 5.22388059701492 "moncada" 4 2014 107 16.54 73.07 0.6
"466" 2014-04-24 14 28 5.22388059701492 10.4477611940298 "moncada" 4 2014 114 17.61 61.61 0
"467" 2014-05-06 7 35 2.61194029850746 13.0597014925373 "moncada" 4 2014 126 16.83 69.37 0
"468" 2014-05-13 46 81 17.1641791044776 30.2238805970149 "moncada" 4 2014 133 18.27 70.93 1.2
"469" 2014-05-15 3 84 1.11940298507463 31.3432835820896 "moncada" 4 2014 135 17.61 65.83 0
"470" 2014-05-25 11 95 4.1044776119403 35.4477611940299 "moncada" 4 2014 145 18.56 67.82 1
"471" 2014-05-29 85 180 31.7164179104478 67.1641791044776 "moncada" 4 2014 149 18.24 64.75 0
"472" 2014-06-05 27 207 10.0746268656716 77.2388059701492 "moncada" 4 2014 156 21.02 68.38 0
"473" 2014-06-12 7 214 2.61194029850746 79.8507462686567 "moncada" 4 2014 163 25.77 40.96 0
"474" 2014-06-19 7 221 2.61194029850746 82.4626865671642 "moncada" 4 2014 170 23.33 65.63 0
"475" 2014-06-26 15 236 5.59701492537313 88.0597014925373 "moncada" 4 2014 177 23.2 61.78 0
"476" 2014-07-03 5 241 1.86567164179104 89.9253731343284 "moncada" 4 2014 184 21.52 83.27 22.4
"477" 2014-07-10 25 266 9.32835820895522 99.2537313432836 "moncada" 4 2014 191 22.19 48.52 0
"478" 2014-07-17 2 268 0.746268656716418 100 "moncada" 4 2014 198 25 64.42 0
"479" 2015-04-09 5 5 0.324254215304799 0.324254215304799 "moncada" 1 2015 99 12.08 69.6 0
"480" 2015-04-16 115 120 7.45784695201038 7.78210116731517 "moncada" 1 2015 106 17.73 61.48 0
"481" 2015-04-23 319 439 20.6874189364462 28.4695201037613 "moncada" 1 2015 113 16.62 69.93 0
"482" 2015-04-30 288 727 18.6770428015564 47.1465629053178 "moncada" 1 2015 120 16.89 73.94 0
"483" 2015-05-06 162 889 10.5058365758755 57.6523994811932 "moncada" 1 2015 126 19.69 49.83 0
"484" 2015-05-14 99 988 6.42023346303502 64.0726329442283 "moncada" 1 2015 134 30.96 32.04 0
"485" 2015-05-21 268 1256 17.3800259403372 81.4526588845655 "moncada" 1 2015 141 17.16 48.23 0
"486" 2015-05-28 129 1385 8.36575875486381 89.8184176394293 "moncada" 1 2015 148 19.25 69.54 0
"487" 2015-06-04 143 1528 9.27367055771725 99.0920881971466 "moncada" 1 2015 155 22.46 46.87 0
"488" 2015-06-11 4 1532 0.259403372243839 99.3514915693904 "moncada" 1 2015 162 22.74 75.19 0.4
"489" 2015-06-18 5 1537 0.324254215304799 99.6757457846952 "moncada" 1 2015 169 21.86 66.33 0
"490" 2015-06-25 3 1540 0.194552529182879 99.8702983138781 "moncada" 1 2015 176 23.7 64.41 0
"491" 2015-07-02 1 1541 0.0648508430609598 99.935149156939 "moncada" 1 2015 183 26.36 62.59 0
"492" 2015-07-09 1 1542 0.0648508430609598 100 "moncada" 1 2015 190 26.7 72.17 0
"493" 2015-07-17 0 1542 0 100 "moncada" 1 2015 198 26.62 62.65 0
"494" 2015-04-09 2 2 0.15015015015015 0.15015015015015 "moncada" 2 2015 99 12.08 69.6 0
"495" 2015-04-16 26 28 1.95195195195195 2.1021021021021 "moncada" 2 2015 106 17.73 61.48 0
"496" 2015-04-23 120 148 9.00900900900901 11.1111111111111 "moncada" 2 2015 113 16.62 69.93 0
"497" 2015-04-30 464 612 34.8348348348348 45.945945945946 "moncada" 2 2015 120 16.89 73.94 0
"498" 2015-05-06 142 754 10.6606606606607 56.6066066066066 "moncada" 2 2015 126 19.69 49.83 0
"499" 2015-05-14 52 806 3.9039039039039 60.5105105105105 "moncada" 2 2015 134 30.96 32.04 0
"500" 2015-05-21 192 998 14.4144144144144 74.9249249249249 "moncada" 2 2015 141 17.16 48.23 0
"501" 2015-05-28 181 1179 13.5885885885886 88.5135135135135 "moncada" 2 2015 148 19.25 69.54 0
"502" 2015-06-04 128 1307 9.60960960960961 98.1231231231231 "moncada" 2 2015 155 22.46 46.87 0
"503" 2015-06-11 6 1313 0.45045045045045 98.5735735735736 "moncada" 2 2015 162 22.74 75.19 0.4
"504" 2015-06-18 7 1320 0.525525525525526 99.0990990990991 "moncada" 2 2015 169 21.86 66.33 0
"505" 2015-06-25 1 1321 0.0750750750750751 99.1741741741742 "moncada" 2 2015 176 23.7 64.41 0
"506" 2015-07-02 4 1325 0.3003003003003 99.4744744744745 "moncada" 2 2015 183 26.36 62.59 0
"507" 2015-07-09 0 1325 0 99.4744744744745 "moncada" 2 2015 190 26.7 72.17 0
"508" 2015-07-17 7 1332 0.525525525525526 100 "moncada" 2 2015 198 26.62 62.65 0
"509" 2015-04-09 3 3 0.230769230769231 0.230769230769231 "moncada" 3 2015 99 12.08 69.6 0
"510" 2015-04-16 61 64 4.69230769230769 4.92307692307692 "moncada" 3 2015 106 17.73 61.48 0
"511" 2015-04-23 144 208 11.0769230769231 16 "moncada" 3 2015 113 16.62 69.93 0
"512" 2015-04-30 485 693 37.3076923076923 53.3076923076923 "moncada" 3 2015 120 16.89 73.94 0
"513" 2015-05-06 185 878 14.2307692307692 67.5384615384615 "moncada" 3 2015 126 19.69 49.83 0
"514" 2015-05-14 0 878 0 67.5384615384615 "moncada" 3 2015 134 30.96 32.04 0
"515" 2015-05-21 174 1052 13.3846153846154 80.9230769230769 "moncada" 3 2015 141 17.16 48.23 0
"516" 2015-05-28 144 1196 11.0769230769231 92 "moncada" 3 2015 148 19.25 69.54 0
"517" 2015-06-04 87 1283 6.69230769230769 98.6923076923077 "moncada" 3 2015 155 22.46 46.87 0
"518" 2015-06-11 8 1291 0.615384615384615 99.3076923076923 "moncada" 3 2015 162 22.74 75.19 0.4
"519" 2015-06-18 4 1295 0.307692307692308 99.6153846153846 "moncada" 3 2015 169 21.86 66.33 0
"520" 2015-06-25 0 1295 0 99.6153846153846 "moncada" 3 2015 176 23.7 64.41 0
"521" 2015-07-02 1 1296 0.0769230769230769 99.6923076923077 "moncada" 3 2015 183 26.36 62.59 0
"522" 2015-07-09 4 1300 0.307692307692308 100 "moncada" 3 2015 190 26.7 72.17 0
"523" 2015-07-17 0 1300 0 100 "moncada" 3 2015 198 26.62 62.65 0
"524" 2015-04-09 3 3 0.159235668789809 0.159235668789809 "moncada" 4 2015 99 12.08 69.6 0
"525" 2015-04-16 15 18 0.796178343949045 0.955414012738854 "moncada" 4 2015 106 17.73 61.48 0
"526" 2015-04-23 73 91 3.87473460721868 4.83014861995754 "moncada" 4 2015 113 16.62 69.93 0
"527" 2015-04-30 648 739 34.3949044585987 39.2250530785563 "moncada" 4 2015 120 16.89 73.94 0
"528" 2015-05-06 218 957 11.5711252653928 50.7961783439491 "moncada" 4 2015 126 19.69 49.83 0
"529" 2015-05-14 73 1030 3.87473460721868 54.6709129511677 "moncada" 4 2015 134 30.96 32.04 0
"530" 2015-05-21 584 1614 30.9978768577495 85.6687898089172 "moncada" 4 2015 141 17.16 48.23 0
"531" 2015-05-28 57 1671 3.02547770700637 88.6942675159236 "moncada" 4 2015 148 19.25 69.54 0
"532" 2015-06-04 169 1840 8.97027600849257 97.6645435244161 "moncada" 4 2015 155 22.46 46.87 0
"533" 2015-06-11 9 1849 0.477707006369427 98.1422505307856 "moncada" 4 2015 162 22.74 75.19 0.4
"534" 2015-06-18 5 1854 0.265392781316348 98.4076433121019 "moncada" 4 2015 169 21.86 66.33 0
"535" 2015-06-25 9 1863 0.477707006369427 98.8853503184713 "moncada" 4 2015 176 23.7 64.41 0
"536" 2015-07-02 10 1873 0.530785562632696 99.416135881104 "moncada" 4 2015 183 26.36 62.59 0
"537" 2015-07-09 11 1884 0.583864118895966 100 "moncada" 4 2015 190 26.7 72.17 0
"538" 2015-07-17 0 1884 0 100 "moncada" 4 2015 198 26.62 62.65 0
"539" 2010-03-11 0 0 0 0 "benimodo" 1 2010 70 5.95 70.9 0
"540" 2010-03-18 0 0 0 0 "benimodo" 1 2010 77 10.6 84.2 0
"541" 2010-03-25 11 11 0.615901455767077 0.615901455767077 "benimodo" 1 2010 84 14.53 82.3 0
"542" 2010-03-31 22 33 1.23180291153415 1.84770436730123 "benimodo" 1 2010 90 14.81 49.18 0
"543" 2010-04-08 45 78 2.51959686450168 4.36730123180291 "benimodo" 1 2010 98 12.04 71.4 0
"544" 2010-04-15 57 135 3.19148936170213 7.55879059350504 "benimodo" 1 2010 105 12.21 83.5 0
"545" 2010-04-22 339 474 18.9809630459127 26.5397536394177 "benimodo" 1 2010 112 15 86.2 3.2
"546" 2010-04-29 400 874 22.3964165733483 48.936170212766 "benimodo" 1 2010 119 18.83 73.4 0
"547" 2010-05-07 324 1198 18.1410974244121 67.0772676371781 "benimodo" 1 2010 127 14.62 80 10.2
"548" 2010-05-13 191 1389 10.6942889137738 77.7715565509518 "benimodo" 1 2010 133 16.8 48.85 0
"549" 2010-05-20 91 1480 5.09518477043673 82.8667413213886 "benimodo" 1 2010 140 19.03 63.5 0
"550" 2010-05-27 193 1673 10.8062709966405 93.6730123180291 "benimodo" 1 2010 147 18.75 81.5 5.4
"551" 2010-06-03 76 1749 4.25531914893617 97.9283314669653 "benimodo" 1 2010 154 21.85 78.3 0
"552" 2010-06-10 3 1752 0.167973124300112 98.0963045912654 "benimodo" 1 2010 161 22.26 56.15 0.4
"553" 2010-06-17 15 1767 0.83986562150056 98.936170212766 "benimodo" 1 2010 168 18.93 66.26 0
"554" 2010-06-24 3 1770 0.167973124300112 99.1041433370661 "benimodo" 1 2010 175 22.15 76.3 0
"555" 2010-07-01 2 1772 0.111982082866741 99.2161254199328 "benimodo" 1 2010 182 26.17 60.41 0
"556" 2010-07-08 1 1773 0.0559910414333707 99.2721164613662 "benimodo" 1 2010 189 25.69 70.6 0
"557" 2010-07-15 2 1775 0.111982082866741 99.3840985442329 "benimodo" 1 2010 196 25.85 80.5 0
"558" 2010-07-22 7 1782 0.391937290033595 99.7760358342665 "benimodo" 1 2010 203 26.58 77 0
"559" 2010-07-29 3 1785 0.167973124300112 99.9440089585666 "benimodo" 1 2010 210 25.84 69.82 0
"560" 2010-08-05 1 1786 0.0559910414333707 100 "benimodo" 1 2010 217 26.03 67.65 0
"561" 2010-08-12 0 1786 0 100 "benimodo" 1 2010 224 25.49 76.3 0
"562" 2010-08-19 0 1786 0 100 "benimodo" 1 2010 231 22.99 86.8 5.4
"563" 2010-08-26 0 1786 0 100 "benimodo" 1 2010 238 28.71 65.12 0
"564" 2010-09-02 0 1786 0 100 "benimodo" 1 2010 245 21.06 83.6 16.8
"565" 2010-09-09 0 1786 0 100 "benimodo" 1 2010 252 22.02 53.84 0
"566" 2010-09-16 0 1786 0 100 "benimodo" 1 2010 259 21.88 84.6 0.2
"567" 2010-09-23 0 1786 0 100 "benimodo" 1 2010 266 21.54 84.5 3.4
"568" 2010-09-30 0 1786 0 100 "benimodo" 1 2010 273 20.01 84.1 0.2
"569" 2011-03-29 0 0 0 0 "benimodo" 1 2011 88 16.61 59.19 0
"570" 2011-04-05 101 101 4.44933920704846 4.44933920704846 "benimodo" 1 2011 95 15.65 70.3 0
"571" 2011-04-12 200 301 8.81057268722467 13.2599118942731 "benimodo" 1 2011 102 18.15 60.57 0
"572" 2011-04-19 209 510 9.20704845814978 22.4669603524229 "benimodo" 1 2011 109 15.49 71.7 0
"573" 2011-04-26 56 566 2.46696035242291 24.9339207048458 "benimodo" 1 2011 116 17.76 66.36 0
"574" 2011-05-03 115 681 5.06607929515418 30 "benimodo" 1 2011 123 17.85 77.9 4.2
"575" 2011-05-10 217 898 9.55947136563877 39.5594713656388 "benimodo" 1 2011 130 18.33 78 0
"576" 2011-05-17 49 947 2.15859030837004 41.7180616740088 "benimodo" 1 2011 137 18.6 72.9 0
"577" 2011-05-24 24 971 1.05726872246696 42.7753303964758 "benimodo" 1 2011 144 22.16 55.59 0
"578" 2011-05-31 146 1117 6.43171806167401 49.2070484581498 "benimodo" 1 2011 151 21.74 69.07 0
"579" 2011-06-07 198 1315 8.72246696035242 57.9295154185022 "benimodo" 1 2011 158 19.78 68.78 0.6
"580" 2011-06-14 212 1527 9.33920704845815 67.2687224669604 "benimodo" 1 2011 165 22.85 74.9 0
"581" 2011-06-21 68 1595 2.99559471365639 70.2643171806167 "benimodo" 1 2011 172 24 71.5 0
"582" 2011-06-28 435 2030 19.1629955947137 89.4273127753304 "benimodo" 1 2011 179 24.82 72 0.2
"583" 2011-07-05 18 2048 0.79295154185022 90.2202643171806 "benimodo" 1 2011 186 26.47 64.97 0
"584" 2011-07-12 30 2078 1.3215859030837 91.5418502202643 "benimodo" 1 2011 193 25.04 80.5 3.2
"585" 2011-07-19 25 2103 1.10132158590308 92.6431718061674 "benimodo" 1 2011 200 24.94 52.8 0
"586" 2011-07-26 8 2111 0.352422907488987 92.9955947136564 "benimodo" 1 2011 207 25.74 61.14 0
"587" 2011-08-02 45 2156 1.98237885462555 94.9779735682819 "benimodo" 1 2011 214 25.2 71 0
"588" 2011-08-09 36 2192 1.58590308370044 96.5638766519824 "benimodo" 1 2011 221 24.42 71.2 0
"589" 2011-08-16 45 2237 1.98237885462555 98.5462555066079 "benimodo" 1 2011 228 26.09 73.3 0
"590" 2011-08-23 33 2270 1.45374449339207 100 "benimodo" 1 2011 235 26.32 67.83 0
"591" 2011-08-28 0 2270 0 100 "benimodo" 1 2011 240 24.86 65.93 0
"592" 2011-09-04 0 2270 0 100 "benimodo" 1 2011 247 25.6 48.77 0
"593" 2011-09-13 0 2270 0 100 "benimodo" 1 2011 256 24.34 73.2 0
"615" 2010-03-11 0 0 0 0 "castellon" 1 2010 70 5.56 72.3 0
"616" 2010-03-18 0 0 0 0 "castellon" 1 2010 77 11.41 79.5 0
"617" 2010-03-25 7 7 0.460223537146614 0.460223537146614 "castellon" 1 2010 84 14.81 79.4 0
"618" 2010-03-31 14 21 0.920447074293228 1.38067061143984 "castellon" 1 2010 90 15.28 47.35 0
"619" 2010-04-08 27 48 1.77514792899408 3.15581854043393 "castellon" 1 2010 98 12.37 68.79 0
"620" 2010-04-15 125 173 8.21827744904668 11.3740959894806 "castellon" 1 2010 105 12.26 82.1 0
"621" 2010-04-22 408 581 26.8244575936884 38.198553583169 "castellon" 1 2010 112 15.23 84.9 3.2
"622" 2010-04-29 32 613 2.10387902695595 40.3024326101249 "castellon" 1 2010 119 19 69.59 0
"623" 2010-05-07 130 743 8.54700854700855 48.8494411571335 "castellon" 1 2010 127 14.47 79.7 2.2
"624" 2010-05-13 400 1143 26.2984878369494 75.1479289940828 "castellon" 1 2010 133 16.55 49.34 0
"625" 2010-05-20 44 1187 2.89283366206443 78.0407626561473 "castellon" 1 2010 140 19.74 55.3 0
"626" 2010-05-27 160 1347 10.5193951347798 88.560157790927 "castellon" 1 2010 147 19.26 76.3 5.8
"627" 2010-06-03 82 1429 5.39119000657462 93.9513477975016 "castellon" 1 2010 154 22.76 70.3 0.4
"628" 2010-06-10 17 1446 1.11768573307035 95.069033530572 "castellon" 1 2010 161 22.21 55.93 0.6
"629" 2010-06-17 46 1492 3.02432610124918 98.0933596318212 "castellon" 1 2010 168 19.99 55.71 0
"630" 2010-06-24 8 1500 0.525969756738987 98.6193293885602 "castellon" 1 2010 175 23.2 71.6 0
"631" 2010-07-01 3 1503 0.19723865877712 98.8165680473373 "castellon" 1 2010 182 27.46 55.66 0
"632" 2010-07-08 7 1510 0.460223537146614 99.2767915844839 "castellon" 1 2010 189 26.37 66.19 0
"633" 2010-07-15 7 1517 0.460223537146614 99.7370151216305 "castellon" 1 2010 196 26.66 72.8 0
"634" 2010-07-22 1 1518 0.0657462195923734 99.8027613412229 "castellon" 1 2010 203 27.57 71.9 0
"635" 2010-07-29 1 1519 0.0657462195923734 99.8685075608153 "castellon" 1 2010 210 26.63 61.17 0
"636" 2010-08-05 2 1521 0.131492439184747 100 "castellon" 1 2010 217 27.2 61.08 0
"637" 2010-08-12 0 1521 0 100 "castellon" 1 2010 224 25.8 72.6 0
"638" 2010-08-19 0 1521 0 100 "castellon" 1 2010 231 23.7 80.2 1.8
"639" 2010-08-26 0 1521 0 100 "castellon" 1 2010 238 31 53.17 0
"640" 2010-09-02 0 1521 0 100 "castellon" 1 2010 245 21.38 77 2.8
"641" 2010-09-09 0 1521 0 100 "castellon" 1 2010 252 22.71 47.72 0
"642" 2010-09-16 0 1521 0 100 "castellon" 1 2010 259 21.95 80 0
"643" 2010-09-23 0 1521 0 100 "castellon" 1 2010 266 21.92 82.2 3.4
"644" 2010-09-30 0 1521 0 100 "castellon" 1 2010 273 20.11 77.5 0.2
"645" 2011-03-29 101 101 6.90834473324214 6.90834473324214 "castellon" 1 2011 88 17.42 56.09 0
"646" 2011-04-05 145 246 9.91792065663475 16.8262653898769 "castellon" 1 2011 95 15.71 69.78 0
"647" 2011-04-12 142 388 9.71272229822161 26.5389876880985 "castellon" 1 2011 102 18.37 59.73 0
"648" 2011-04-19 63 451 4.30916552667579 30.8481532147743 "castellon" 1 2011 109 14.86 72.8 0
"649" 2011-04-26 125 576 8.5499316005472 39.3980848153215 "castellon" 1 2011 116 17.44 67.3 0
"650" 2011-05-03 30 606 2.05198358413133 41.4500683994528 "castellon" 1 2011 123 17.87 76.5 2.8
"651" 2011-05-10 95 701 6.49794801641587 47.9480164158687 "castellon" 1 2011 130 18.53 79.1 0
"652" 2011-05-17 63 764 4.30916552667579 52.2571819425445 "castellon" 1 2011 137 18.98 71.6 0
"653" 2011-05-24 148 912 10.1231190150479 62.3803009575923 "castellon" 1 2011 144 22.67 54.04 0
"654" 2011-05-31 34 946 2.32558139534884 64.7058823529412 "castellon" 1 2011 151 21.53 70.3 0.2
"655" 2011-06-07 32 978 2.18878248974008 66.8946648426813 "castellon" 1 2011 158 18.92 77.4 2.2
"656" 2011-06-14 148 1126 10.1231190150479 77.0177838577291 "castellon" 1 2011 165 23.39 73 0
"657" 2011-06-21 83 1209 5.67715458276334 82.6949384404925 "castellon" 1 2011 172 24.45 70.5 0
"658" 2011-06-28 150 1359 10.2599179206566 92.9548563611491 "castellon" 1 2011 179 25.53 69.7 0
"659" 2011-07-05 32 1391 2.18878248974008 95.1436388508892 "castellon" 1 2011 186 27.61 58.71 0
"660" 2011-07-12 30 1421 2.05198358413133 97.1956224350205 "castellon" 1 2011 193 25.62 79.5 1.6
"661" 2011-07-19 1 1422 0.0683994528043776 97.2640218878249 "castellon" 1 2011 200 26.39 48.02 0
"662" 2011-07-26 10 1432 0.683994528043776 97.9480164158687 "castellon" 1 2011 207 26.38 62.73 0
"663" 2011-08-02 23 1455 1.57318741450068 99.5212038303694 "castellon" 1 2011 214 25.91 71 0
"664" 2011-08-09 0 1455 0 99.5212038303694 "castellon" 1 2011 221 25.15 70.7 0
"665" 2011-08-16 0 1455 0 99.5212038303694 "castellon" 1 2011 228 26.8 73.1 0
"666" 2011-08-23 0 1455 0 99.5212038303694 "castellon" 1 2011 235 26.99 65.98 0
"667" 2011-08-28 0 1455 0 99.5212038303694 "castellon" 1 2011 240 25.53 65.12 0
"668" 2011-09-04 0 1455 0 99.5212038303694 "castellon" 1 2011 247 25.19 54.17 0
"669" 2011-09-13 7 1462 0.478796169630643 100 "castellon" 1 2011 256 24.7 74.3 0.2
"670" 2010-03-11 0 0 0 0 "guadassuar" 1 2010 70 5.95 70.9 0
"671" 2010-03-18 0 0 0 0 "guadassuar" 1 2010 77 10.6 84.2 0
"672" 2010-03-25 14 14 0.708143651997977 0.708143651997977 "guadassuar" 1 2010 84 14.53 82.3 0
"673" 2010-03-31 20 34 1.01163378856854 1.71977744056651 "guadassuar" 1 2010 90 14.81 49.18 0
"674" 2010-04-08 55 89 2.78199291856348 4.50177035913 "guadassuar" 1 2010 98 12.04 71.4 0
"675" 2010-04-15 97 186 4.90642387455741 9.40819423368741 "guadassuar" 1 2010 105 12.21 83.5 0
"676" 2010-04-22 303 489 15.3262518968134 24.7344461305008 "guadassuar" 1 2010 112 15 86.2 3.2
"677" 2010-04-29 321 810 16.236722306525 40.9711684370258 "guadassuar" 1 2010 119 18.83 73.4 0
"678" 2010-05-07 172 982 8.70005058168943 49.6712190187152 "guadassuar" 1 2010 127 14.62 80 10.2
"679" 2010-05-13 210 1192 10.6221547799696 60.2933737986849 "guadassuar" 1 2010 133 16.8 48.85 0
"680" 2010-05-20 125 1317 6.32271117855336 66.6160849772382 "guadassuar" 1 2010 140 19.03 63.5 0
"681" 2010-05-27 235 1552 11.8866970156803 78.5027819929186 "guadassuar" 1 2010 147 18.75 81.5 5.4
"682" 2010-06-03 265 1817 13.4041476985331 91.9069296914517 "guadassuar" 1 2010 154 21.85 78.3 0
"683" 2010-06-10 57 1874 2.88315629742033 94.790085988872 "guadassuar" 1 2010 161 22.26 56.15 0.4
"684" 2010-06-17 38 1912 1.92210419828022 96.7121901871522 "guadassuar" 1 2010 168 18.93 66.26 0
"685" 2010-06-24 13 1925 0.65756196256955 97.3697521497218 "guadassuar" 1 2010 175 22.15 76.3 0
"686" 2010-07-01 12 1937 0.606980273141123 97.9767324228629 "guadassuar" 1 2010 182 26.17 60.41 0
"687" 2010-07-08 19 1956 0.961052099140111 98.937784522003 "guadassuar" 1 2010 189 25.69 70.6 0
"688" 2010-07-15 4 1960 0.202326757713708 99.1401112797167 "guadassuar" 1 2010 196 25.85 80.5 0
"689" 2010-07-22 11 1971 0.556398583712696 99.6965098634294 "guadassuar" 1 2010 203 26.58 77 0
"690" 2010-07-29 5 1976 0.252908447142135 99.9494183105716 "guadassuar" 1 2010 210 25.84 69.82 0
"691" 2010-08-05 1 1977 0.0505816894284269 100 "guadassuar" 1 2010 217 26.03 67.65 0
"692" 2010-08-12 0 1977 0 100 "guadassuar" 1 2010 224 25.49 76.3 0
"693" 2010-08-19 0 1977 0 100 "guadassuar" 1 2010 231 22.99 86.8 5.4
"694" 2010-08-26 0 1977 0 100 "guadassuar" 1 2010 238 28.71 65.12 0
"695" 2010-09-02 0 1977 0 100 "guadassuar" 1 2010 245 21.06 83.6 16.8
"696" 2010-09-09 0 1977 0 100 "guadassuar" 1 2010 252 22.02 53.84 0
"697" 2010-09-16 0 1977 0 100 "guadassuar" 1 2010 259 21.88 84.6 0.2
"698" 2010-09-23 0 1977 0 100 "guadassuar" 1 2010 266 21.54 84.5 3.4
"699" 2010-09-30 0 1977 0 100 "guadassuar" 1 2010 273 20.01 84.1 0.2
"700" 2011-03-29 0 0 0 0 "guadassuar" 1 2011 88 16.61 59.19 0
"701" 2011-04-05 94 94 5.61529271206691 5.61529271206691 "guadassuar" 1 2011 95 15.65 70.3 0
"702" 2011-04-12 94 188 5.61529271206691 11.2305854241338 "guadassuar" 1 2011 102 18.15 60.57 0
"703" 2011-04-19 303 491 18.1003584229391 29.3309438470729 "guadassuar" 1 2011 109 15.49 71.7 0
"704" 2011-04-26 106 597 6.33213859020311 35.663082437276 "guadassuar" 1 2011 116 17.76 66.36 0
"705" 2011-05-03 287 884 17.1445639187575 52.8076463560335 "guadassuar" 1 2011 123 17.85 77.9 4.2
"706" 2011-05-10 223 1107 13.3213859020311 66.1290322580645 "guadassuar" 1 2011 130 18.33 78 0
"707" 2011-05-17 84 1191 5.01792114695341 71.1469534050179 "guadassuar" 1 2011 137 18.6 72.9 0
"708" 2011-05-24 69 1260 4.12186379928315 75.2688172043011 "guadassuar" 1 2011 144 22.16 55.59 0
"709" 2011-05-31 17 1277 1.01553166069295 76.284348864994 "guadassuar" 1 2011 151 21.74 69.07 0
"710" 2011-06-07 49 1326 2.92712066905615 79.2114695340502 "guadassuar" 1 2011 158 19.78 68.78 0.6
"711" 2011-06-14 41 1367 2.44922341696535 81.6606929510155 "guadassuar" 1 2011 165 22.85 74.9 0
"712" 2011-06-21 68 1435 4.0621266427718 85.7228195937873 "guadassuar" 1 2011 172 24 71.5 0
"713" 2011-06-28 139 1574 8.30346475507766 94.026284348865 "guadassuar" 1 2011 179 24.82 72 0.2
"714" 2011-07-05 10 1584 0.597371565113501 94.6236559139785 "guadassuar" 1 2011 186 26.47 64.97 0
"715" 2011-07-12 41 1625 2.44922341696535 97.0728793309438 "guadassuar" 1 2011 193 25.04 80.5 3.2
"716" 2011-07-19 15 1640 0.896057347670251 97.9689366786141 "guadassuar" 1 2011 200 24.94 52.8 0
"717" 2011-07-26 10 1650 0.597371565113501 98.5663082437276 "guadassuar" 1 2011 207 25.74 61.14 0
"718" 2011-08-02 9 1659 0.537634408602151 99.1039426523297 "guadassuar" 1 2011 214 25.2 71 0
"719" 2011-08-09 1 1660 0.0597371565113501 99.1636798088411 "guadassuar" 1 2011 221 24.42 71.2 0
"720" 2011-08-16 5 1665 0.29868578255675 99.4623655913979 "guadassuar" 1 2011 228 26.09 73.3 0
"721" 2011-08-23 9 1674 0.537634408602151 100 "guadassuar" 1 2011 235 26.32 67.83 0
"722" 2011-08-28 0 1674 0 100 "guadassuar" 1 2011 240 24.86 65.93 0
"723" 2011-09-04 0 1674 0 100 "guadassuar" 1 2011 247 25.6 48.77 0
"724" 2011-09-13 0 1674 0 100 "guadassuar" 1 2011 256 24.34 73.2 0
